{
	"Sources/Methods/LOG ADD ENTRY.4dm": {
		"startSelection": 38,
		"endSelection": 38,
		"firstSelectedLine": 15,
		"lastSelectedLine": 15,
		"folding": [],
		"bookmarks": [],
		"stamp": "2025-01-21T01:59:06.225Z"
	},
	"Sources/Methods/_Testing.4dm": {
		"startSelection": 0,
		"endSelection": 0,
		"firstSelectedLine": 1,
		"lastSelectedLine": 1,
		"folding": [],
		"bookmarks": [],
		"stamp": "2025-01-21T04:20:13.546Z"
	},
	"Sources/Methods/LOG BUG ALERT.4dm": {
		"startSelection": 38,
		"endSelection": 38,
		"firstSelectedLine": 29,
		"lastSelectedLine": 29,
		"folding": [],
		"bookmarks": [],
		"stamp": "2025-01-21T01:59:13.712Z"
	},
	"Sources/Methods/Log_Alert2.4dm": {
		"startSelection": 38,
		"endSelection": 38,
		"firstSelectedLine": 13,
		"lastSelectedLine": 13,
		"folding": [],
		"bookmarks": [],
		"stamp": "2025-01-21T02:18:01.305Z"
	},
	"Sources/Methods/util_Get4DVersion.4dm": {
		"startSelection": 27,
		"endSelection": 27,
		"firstSelectedLine": 12,
		"lastSelectedLine": 12,
		"folding": [],
		"bookmarks": [],
		"stamp": "2025-01-21T00:49:59.926Z"
	},
	"Sources/Methods/LOG CLOSE LOG.4dm": {
		"startSelection": 38,
		"endSelection": 38,
		"firstSelectedLine": 13,
		"lastSelectedLine": 13,
		"folding": [],
		"bookmarks": [],
		"stamp": "2025-01-21T01:59:23.941Z"
	},
	"Sources/Methods/LOG CLOSE LOG2.4dm": {
		"startSelection": 38,
		"endSelection": 38,
		"firstSelectedLine": 13,
		"lastSelectedLine": 13,
		"folding": [],
		"bookmarks": [],
		"stamp": "2025-01-21T01:59:28.532Z"
	},
	"Sources/Methods/LOG COMPRESS.4dm": {
		"startSelection": 38,
		"endSelection": 38,
		"firstSelectedLine": 16,
		"lastSelectedLine": 16,
		"folding": [],
		"bookmarks": [],
		"stamp": "2025-01-21T01:59:33.189Z"
	},
	"Sources/Methods/Log Current Log.4dm": {
		"startSelection": 38,
		"endSelection": 38,
		"firstSelectedLine": 12,
		"lastSelectedLine": 12,
		"folding": [],
		"bookmarks": [],
		"stamp": "2025-01-21T01:59:40.616Z"
	},
	"Sources/Methods/LOG DECLARE LOG.4dm": {
		"startSelection": 0,
		"endSelection": 0,
		"firstSelectedLine": 18,
		"lastSelectedLine": 18,
		"folding": [],
		"bookmarks": [],
		"stamp": "2025-01-21T01:59:51.964Z"
	},
	"Sources/Methods/Log_Init.4dm": {
		"startSelection": 55,
		"endSelection": 55,
		"firstSelectedLine": 0,
		"lastSelectedLine": 0,
		"folding": [],
		"bookmarks": [],
		"stamp": "2025-01-21T02:18:23.309Z"
	},
	"Sources/Methods/LOG ENABLE.4dm": {
		"startSelection": 41,
		"endSelection": 38,
		"firstSelectedLine": 14,
		"lastSelectedLine": 15,
		"folding": [],
		"bookmarks": [],
		"stamp": "2025-01-21T01:58:19.285Z"
	},
	"Sources/Methods/Compiler_Log.4dm": {
		"startSelection": 24,
		"endSelection": 24,
		"firstSelectedLine": 20,
		"lastSelectedLine": 20,
		"folding": [],
		"bookmarks": [],
		"stamp": "2025-01-21T01:58:58.106Z"
	},
	"Sources/Methods/Log File Name.4dm": {
		"startSelection": 0,
		"endSelection": 0,
		"firstSelectedLine": 19,
		"lastSelectedLine": 20,
		"folding": [],
		"bookmarks": [],
		"stamp": "2025-01-21T02:01:01.050Z"
	},
	"Sources/Methods/Log Folder Path.4dm": {
		"startSelection": 0,
		"endSelection": 0,
		"firstSelectedLine": 33,
		"lastSelectedLine": 33,
		"folding": [],
		"bookmarks": [],
		"stamp": "2025-01-21T02:04:01.023Z"
	},
	"Sources/Methods/Log Form Event.4dm": {
		"startSelection": 0,
		"endSelection": 0,
		"firstSelectedLine": 16,
		"lastSelectedLine": 16,
		"folding": [],
		"bookmarks": [],
		"stamp": "2025-01-21T02:06:11.270Z"
	},
	"Sources/Methods/Log ISO Time Stamp.4dm": {
		"startSelection": 0,
		"endSelection": 0,
		"firstSelectedLine": 70,
		"lastSelectedLine": 70,
		"folding": [],
		"bookmarks": [],
		"stamp": "2025-01-21T02:10:13.550Z"
	},
	"Sources/Methods/Log Maximum Size.4dm": {
		"startSelection": 38,
		"endSelection": 38,
		"firstSelectedLine": 17,
		"lastSelectedLine": 17,
		"folding": [],
		"bookmarks": [],
		"stamp": "2025-01-21T02:12:13.866Z"
	},
	"Trash/Methods/(LOG SET VERSION).4dm": {
		"startSelection": 3,
		"endSelection": 3,
		"firstSelectedLine": 154,
		"lastSelectedLine": 154,
		"folding": [],
		"bookmarks": [],
		"stamp": "2025-01-21T02:12:56.603Z"
	},
	"Sources/Methods/LOG STOP LOG WRITER2.4dm": {
		"startSelection": 0,
		"endSelection": 0,
		"firstSelectedLine": 2,
		"lastSelectedLine": 2,
		"folding": [],
		"bookmarks": [],
		"stamp": "2025-01-21T02:13:36.792Z"
	},
	"Sources/Methods/LOG THIS.4dm": {
		"startSelection": 0,
		"endSelection": 0,
		"firstSelectedLine": 27,
		"lastSelectedLine": 27,
		"folding": [],
		"bookmarks": [],
		"stamp": "2025-01-21T02:16:18.101Z"
	},
	"Sources/Methods/LOG USE LOG.4dm": {
		"startSelection": 38,
		"endSelection": 38,
		"firstSelectedLine": 14,
		"lastSelectedLine": 14,
		"folding": [],
		"bookmarks": [],
		"stamp": "2025-01-21T02:17:52.395Z"
	},
	"Sources/Methods/logUtil_GetFileName.4dm": {
		"startSelection": 0,
		"endSelection": 0,
		"firstSelectedLine": 19,
		"lastSelectedLine": 19,
		"folding": [],
		"bookmarks": [],
		"stamp": "2025-01-21T02:19:30.101Z"
	},
	"Sources/Methods/logUtil_PositionR.4dm": {
		"startSelection": 38,
		"endSelection": 38,
		"firstSelectedLine": 16,
		"lastSelectedLine": 16,
		"folding": [],
		"bookmarks": [],
		"stamp": "2025-01-21T02:20:45.975Z"
	},
	"Sources/Methods/STRESS TEST.4dm": {
		"startSelection": 17,
		"endSelection": 17,
		"firstSelectedLine": 17,
		"lastSelectedLine": 17,
		"folding": [],
		"bookmarks": [],
		"stamp": "2025-01-21T02:31:40.181Z"
	},
	"Sources/Methods/Compiler_LogMethods.4dm": {
		"startSelection": 0,
		"endSelection": 0,
		"firstSelectedLine": 40,
		"lastSelectedLine": 40,
		"folding": [],
		"bookmarks": [],
		"stamp": "2025-01-21T04:15:55.387Z"
	}
}